{
    "asset" : {
        "generator" : "Khronos glTF Blender I/O v1.8.19",
        "version" : "2.0"
    },
    "scene" : 0,
    "scenes" : [
        {
            "name" : "Scene",
            "nodes" : [
                0
            ]
        }
    ],
    "nodes" : [
        {
            "mesh" : 0,
            "name" : "Cube"
        }
    ],
    "meshes" : [
        {
            "name" : "Cube",
            "primitives" : [
                {
                    "attributes" : {
                        "POSITION" : 0
                    },
                    "indices" : 1,
                    "mode" : 1
                }
            ]
        }
    ],
    "accessors" : [
        {
            "bufferView" : 0,
            "componentType" : 5126,
            "count" : 8,
            "max" : [
                1,
                1,
                1
            ],
            "min" : [
                -1,
                -1,
                -1
            ],
            "type" : "VEC3"
        },
        {
            "bufferView" : 1,
            "componentType" : 5123,
            "count" : 24,
            "type" : "SCALAR"
        }
    ],
    "bufferViews" : [
        {
            "buffer" : 0,
            "byteLength" : 96,
            "byteOffset" : 0
        },
        {
            "buffer" : 0,
            "byteLength" : 48,
            "byteOffset" : 96
        }
    ],
    "buffers" : [
        {
            "byteLength" : 144,
            "uri" : "data:application/octet-stream;base64,AACAPwAAgD8AAIA/AACAPwAAgD8AAIC/AACAPwAAgL8AAIA/AACAPwAAgL8AAIC/AACAvwAAgD8AAIA/AACAvwAAgD8AAIC/AACAvwAAgL8AAIA/AACAvwAAgL8AAIC/BQAHAAEABQAAAAEABwAGAAIAAwAEAAUAAgAGAAAAAgAHAAMABgAEAAQAAAADAAEA"
        }
    ]
}
